50.000000	0.054134	-271.122009
65.610229	0.064592	86.733002
86.094040	0.076563	99000003020963284500000000000000000000.000000
112.972992	0.096887	78.082001
148.243668	0.121493	78.682999
194.526016	0.146100	76.447998
255.257919	0.193750	-279.699005
334.950623	0.233760	99000003020963284500000000000000000000.000000
439.523712	0.301427	66.170998
576.744995	0.375000	61.714001
756.807434	0.462500	62.491001
993.086121	0.571429	51.737000
1303.132202	0.679365	-314.062988
1709.975952	0.781250	39.452000
2243.838135	0.857143	28.993000
2944.374756	0.906250	26.393000
3863.621826	0.937500	20.077000
5069.862305	0.984375	16.322001
6652.696289	1.000000	8.372000
8729.698242	1.015873	6.316000
11455.149414	1.016000	5.753000
15031.500000	1.031000	0.000000
19724.402344	1.016000	3.198000
25882.449219	1.014764	-0.468144
33963.070312	1.014764	-3.046000
44566.492187	1.014764	-1.207000
58480.355469	1.014764	-0.527863
76738.187500	1.014764	1.379000
100696.195312	1.000000	-0.361805
132134.015625	1.014764	0.000000
173386.843750	1.046260	-1.252000
227519.015625	1.031038	-0.409087
298551.468750	1.030512	-0.537332
391760.593750	1.000000	-0.707957
514070.062500	1.030512	-0.924252
674565.062500	1.015519	0.608102
885167.312500	1.014764	0.000000
1161520.625000	1.030512	-2.512000
1524152.625000	1.014764	-1.654000
2000000.000000	1.014764	-0.722159
