0.000000000000	8.750000000000	0.312500000000
0.000005000000	8.906250000000	0.312500000000
0.000010000000	8.750000000000	0.312500000000
0.000015000000	8.750000000000	0.312500000000
0.000019999999	8.750000000000	0.312500000000
0.000024999999	8.750000000000	0.312500000000
0.000029999999	8.750000000000	0.312500000000
0.000035000001	8.750000000000	0.156250000000
0.000039999999	8.750000000000	0.312500000000
0.000045000001	8.750000000000	0.312500000000
0.000049999999	8.750000000000	0.312500000000
0.000055000000	8.750000000000	0.312500000000
0.000059999998	8.750000000000	0.312500000000
0.000065000000	8.750000000000	0.156250000000
0.000070000002	8.750000000000	0.312500000000
0.000075000004	8.750000000000	0.312500000000
0.000079999998	8.750000000000	0.312500000000
0.000085000000	8.750000000000	0.312500000000
0.000090000001	8.750000000000	0.312500000000
0.000095000003	8.750000000000	0.312500000000
0.000099999997	8.750000000000	0.312500000000
0.000104999999	8.750000000000	0.312500000000
0.000110000001	8.750000000000	0.312500000000
0.000115000003	8.906250000000	0.312500000000
0.000119999997	8.750000000000	0.312500000000
0.000125000006	8.750000000000	0.312500000000
0.000130000000	8.750000000000	0.312500000000
0.000134999995	8.750000000000	0.312500000000
0.000140000004	8.750000000000	0.468750000000
0.000144999998	8.750000000000	0.312500000000
0.000150000007	8.750000000000	0.312500000000
0.000155000002	8.750000000000	0.312500000000
0.000159999996	8.750000000000	0.312500000000
0.000165000005	8.750000000000	0.312500000000
0.000169999999	8.750000000000	0.312500000000
0.000174999994	8.750000000000	0.156250000000
0.000180000003	8.750000000000	0.312500000000
0.000184999997	8.750000000000	0.312500000000
0.000190000006	8.750000000000	0.312500000000
0.000195000001	8.750000000000	0.156250000000
0.000199999995	8.750000000000	0.312500000000
0.000205000004	8.750000000000	0.312500000000
0.000209999998	8.750000000000	0.312500000000
0.000214999993	8.750000000000	0.312500000000
0.000220000002	8.750000000000	0.312500000000
0.000224999996	8.750000000000	0.312500000000
0.000230000005	8.750000000000	0.312500000000
0.000235000000	8.750000000000	0.312500000000
0.000239999994	8.750000000000	0.312500000000
0.000245000003	8.750000000000	0.312500000000
0.000250000012	8.750000000000	0.312500000000
0.000254999992	8.750000000000	0.312500000000
0.000260000001	8.750000000000	0.312500000000
0.000265000010	8.750000000000	0.312500000000
0.000269999990	8.750000000000	0.312500000000
0.000274999999	8.750000000000	0.312500000000
0.000280000007	8.906250000000	0.312500000000
0.000284999987	8.750000000000	0.312500000000
0.000289999996	8.906250000000	0.312500000000
0.000295000005	8.750000000000	0.312500000000
0.000300000014	8.750000000000	0.312500000000
0.000304999994	8.750000000000	0.312500000000
0.000310000003	8.750000000000	0.312500000000
0.000315000012	8.750000000000	0.312500000000
0.000319999992	8.750000000000	0.312500000000
0.000325000001	8.750000000000	0.312500000000
0.000330000010	8.750000000000	0.312500000000
0.000334999990	8.750000000000	0.312500000000
0.000339999999	8.750000000000	0.312500000000
0.000345000008	8.750000000000	0.312500000000
0.000349999988	8.750000000000	0.312500000000
0.000354999996	8.750000000000	0.468750000000
0.000360000005	8.750000000000	0.312500000000
0.000365000014	8.750000000000	0.312500000000
0.000369999994	8.750000000000	0.156250000000
0.000375000003	8.750000000000	0.156250000000
0.000380000012	8.750000000000	0.312500000000
0.000384999992	8.750000000000	0.312500000000
0.000390000001	8.750000000000	0.312500000000
0.000395000010	8.750000000000	0.312500000000
0.000399999990	8.750000000000	0.468750000000
0.000404999999	8.906250000000	0.312500000000
0.000410000008	8.750000000000	0.312500000000
0.000414999988	8.750000000000	0.312500000000
0.000419999997	8.750000000000	0.312500000000
0.000425000006	8.750000000000	0.312500000000
0.000429999985	8.750000000000	0.312500000000
0.000434999994	8.750000000000	0.312500000000
0.000440000003	8.750000000000	0.312500000000
0.000445000012	8.750000000000	0.312500000000
0.000449999992	8.750000000000	0.312500000000
0.000455000001	8.750000000000	0.312500000000
0.000460000010	8.750000000000	0.156250000000
0.000464999990	8.750000000000	0.312500000000
0.000469999999	8.750000000000	0.312500000000
0.000475000008	8.750000000000	0.312500000000
0.000479999988	8.750000000000	0.156250000000
0.000484999997	8.750000000000	0.312500000000
0.000490000006	8.750000000000	0.312500000000
0.000494999986	8.750000000000	0.312500000000
0.000500000024	8.750000000000	0.312500000000
0.000505000004	8.750000000000	0.312500000000
0.000509999983	8.906250000000	0.312500000000
0.000515000022	8.750000000000	0.312500000000
0.000520000001	8.750000000000	0.312500000000
0.000524999981	8.750000000000	0.312500000000
0.000530000019	8.750000000000	0.156250000000
0.000534999999	8.750000000000	0.312500000000
0.000539999979	8.750000000000	0.312500000000
0.000545000017	8.750000000000	0.312500000000
0.000549999997	8.750000000000	0.312500000000
0.000554999977	8.906250000000	0.156250000000
0.000560000015	8.750000000000	0.312500000000
0.000564999995	8.750000000000	0.312500000000
0.000569999975	8.750000000000	0.312500000000
0.000575000013	8.750000000000	0.312500000000
0.000579999993	8.750000000000	0.312500000000
0.000584999972	8.750000000000	0.312500000000
0.000590000011	8.750000000000	0.312500000000
0.000594999990	8.906250000000	0.312500000000
0.000600000028	8.750000000000	0.312500000000
0.000605000008	8.750000000000	0.312500000000
0.000609999988	8.750000000000	0.312500000000
0.000615000026	8.750000000000	0.312500000000
0.000620000006	8.750000000000	0.312500000000
0.000624999986	8.750000000000	0.312500000000
0.000630000024	8.750000000000	0.312500000000
0.000635000004	8.750000000000	0.312500000000
0.000639999984	8.750000000000	0.312500000000
0.000645000022	8.750000000000	0.312500000000
0.000650000002	8.750000000000	0.312500000000
0.000654999982	8.750000000000	0.312500000000
0.000660000020	8.750000000000	0.312500000000
0.000665000000	8.750000000000	0.312500000000
0.000669999979	8.906250000000	0.312500000000
0.000675000018	8.750000000000	0.312500000000
0.000679999997	8.750000000000	0.156250000000
0.000684999977	8.750000000000	0.312500000000
0.000690000015	8.750000000000	0.312500000000
0.000694999995	8.750000000000	0.312500000000
0.000699999975	8.906250000000	0.312500000000
0.000705000013	8.750000000000	0.156250000000
0.000709999993	8.750000000000	0.156250000000
0.000714999973	8.906250000000	0.312500000000
0.000720000011	8.750000000000	0.468750000000
0.000724999991	8.750000000000	0.312500000000
0.000730000029	8.906250000000	0.312500000000
0.000735000009	8.750000000000	0.312500000000
0.000739999989	8.750000000000	0.312500000000
0.000745000027	8.906250000000	0.312500000000
0.000750000007	8.750000000000	0.312500000000
0.000754999986	8.750000000000	0.312500000000
0.000760000024	8.750000000000	0.312500000000
0.000765000004	8.750000000000	0.156250000000
0.000769999984	8.750000000000	0.312500000000
0.000775000022	8.750000000000	0.312500000000
0.000780000002	8.750000000000	0.312500000000
0.000784999982	8.750000000000	0.312500000000
0.000790000020	8.750000000000	0.312500000000
0.000795000000	8.750000000000	0.312500000000
0.000799999980	8.750000000000	0.312500000000
0.000805000018	8.750000000000	0.468750000000
0.000809999998	8.750000000000	0.312500000000
0.000814999978	8.750000000000	0.312500000000
0.000820000016	8.750000000000	0.312500000000
0.000824999996	8.750000000000	0.312500000000
0.000829999975	8.750000000000	0.312500000000
0.000835000013	8.750000000000	0.312500000000
0.000839999993	8.750000000000	0.312500000000
0.000844999973	8.750000000000	0.312500000000
0.000850000011	8.906250000000	0.312500000000
0.000854999991	8.750000000000	0.312500000000
0.000859999971	8.750000000000	0.312500000000
0.000865000009	8.750000000000	0.312500000000
0.000869999989	8.750000000000	0.312500000000
0.000875000027	8.750000000000	0.312500000000
0.000880000007	8.750000000000	0.312500000000
0.000884999987	8.750000000000	0.312500000000
0.000890000025	8.750000000000	0.312500000000
0.000895000005	8.750000000000	0.312500000000
0.000899999985	8.750000000000	0.312500000000
0.000905000023	8.750000000000	0.312500000000
0.000910000002	8.750000000000	0.312500000000
0.000914999982	8.750000000000	0.312500000000
0.000920000020	8.750000000000	0.312500000000
0.000925000000	8.750000000000	0.312500000000
0.000929999980	8.750000000000	0.312500000000
0.000935000018	8.906250000000	0.312500000000
0.000939999998	8.750000000000	0.156250000000
0.000944999978	8.750000000000	0.312500000000
0.000950000016	8.750000000000	0.312500000000
0.000954999996	8.750000000000	0.312500000000
0.000959999976	8.750000000000	0.312500000000
0.000965000014	8.750000000000	0.312500000000
0.000969999994	8.750000000000	0.312500000000
0.000974999974	8.750000000000	0.312500000000
0.000980000012	8.750000000000	0.312500000000
0.000985000050	8.750000000000	0.312500000000
0.000989999971	8.750000000000	0.312500000000
0.000995000009	8.750000000000	0.312500000000
0.001000000047	8.750000000000	0.312500000000
0.001004999969	8.750000000000	0.312500000000
0.001010000007	8.906250000000	0.312500000000
0.001015000045	8.750000000000	0.312500000000
0.001019999967	8.750000000000	0.312500000000
0.001025000005	8.750000000000	0.312500000000
0.001030000043	8.750000000000	0.312500000000
0.001034999965	8.750000000000	0.312500000000
0.001040000003	8.906250000000	0.312500000000
0.001045000041	8.750000000000	0.312500000000
0.001049999963	8.750000000000	0.312500000000
0.001055000001	8.906250000000	0.468750000000
0.001060000039	8.906250000000	0.312500000000
0.001064999960	8.750000000000	0.312500000000
0.001069999998	8.750000000000	0.312500000000
0.001075000037	8.750000000000	0.312500000000
0.001079999958	8.750000000000	0.312500000000
0.001084999996	8.750000000000	0.312500000000
0.001090000034	8.750000000000	0.312500000000
0.001094999956	8.750000000000	0.312500000000
0.001099999994	8.750000000000	0.312500000000
0.001105000032	8.750000000000	0.312500000000
0.001109999954	8.750000000000	0.312500000000
0.001114999992	8.750000000000	0.312500000000
0.001120000030	8.750000000000	0.312500000000
0.001124999952	8.750000000000	0.312500000000
0.001129999990	8.750000000000	0.312500000000
0.001135000028	8.750000000000	0.312500000000
0.001139999949	8.906250000000	0.312500000000
0.001144999987	8.750000000000	0.312500000000
0.001150000026	8.750000000000	0.312500000000
0.001154999947	8.750000000000	0.312500000000
0.001159999985	8.750000000000	0.312500000000
0.001165000023	8.750000000000	0.312500000000
0.001169999945	8.750000000000	0.312500000000
0.001174999983	8.750000000000	0.312500000000
0.001180000021	8.906250000000	0.312500000000
0.001184999943	8.750000000000	0.312500000000
0.001189999981	8.750000000000	0.312500000000
0.001195000019	8.750000000000	0.156250000000
0.001200000057	8.750000000000	0.312500000000
0.001204999979	8.750000000000	0.312500000000
0.001210000017	8.750000000000	0.312500000000
0.001215000055	8.906250000000	0.312500000000
0.001219999976	8.750000000000	0.312500000000
0.001225000015	8.750000000000	0.312500000000
0.001230000053	8.750000000000	0.312500000000
0.001234999974	8.750000000000	0.312500000000
0.001240000012	8.750000000000	0.312500000000
0.001245000050	8.593750000000	0.312500000000
0.001249999972	8.750000000000	0.312500000000
0.001255000010	8.750000000000	0.312500000000
0.001260000048	8.750000000000	0.312500000000
0.001264999970	8.750000000000	0.312500000000
0.001270000008	8.750000000000	0.312500000000
0.001275000046	8.750000000000	0.312500000000
0.001279999968	8.750000000000	0.312500000000
0.001285000006	8.750000000000	0.312500000000
0.001290000044	8.750000000000	0.312500000000
0.001294999965	8.750000000000	0.156250000000
0.001300000004	8.750000000000	0.156250000000
0.001305000042	8.750000000000	0.312500000000
0.001309999963	8.750000000000	0.312500000000
0.001315000001	8.750000000000	0.312500000000
0.001320000039	8.750000000000	0.312500000000
0.001324999961	8.906250000000	0.312500000000
0.001329999999	8.750000000000	0.312500000000
0.001335000037	8.750000000000	0.312500000000
0.001339999959	8.750000000000	0.312500000000
0.001344999997	8.750000000000	0.312500000000
0.001350000035	8.750000000000	0.156250000000
0.001354999957	8.750000000000	0.312500000000
0.001359999995	8.750000000000	0.312500000000
0.001365000033	8.750000000000	0.312500000000
0.001369999954	8.750000000000	0.468750000000
0.001374999993	8.750000000000	0.312500000000
0.001380000031	8.750000000000	0.312500000000
0.001384999952	8.750000000000	0.312500000000
0.001389999990	8.750000000000	0.156250000000
0.001395000028	8.750000000000	0.312500000000
0.001399999950	8.593750000000	0.312500000000
0.001404999988	8.750000000000	0.312500000000
0.001410000026	8.750000000000	0.312500000000
0.001414999948	8.750000000000	0.312500000000
0.001419999986	8.750000000000	0.312500000000
0.001425000024	8.750000000000	0.312500000000
0.001429999946	8.750000000000	0.312500000000
0.001434999984	8.750000000000	0.312500000000
0.001440000022	8.906250000000	0.312500000000
0.001444999943	8.750000000000	0.312500000000
0.001449999982	8.750000000000	0.312500000000
0.001455000020	8.750000000000	0.312500000000
0.001460000058	8.750000000000	0.468750000000
0.001464999979	8.750000000000	0.156250000000
0.001470000017	8.750000000000	0.312500000000
0.001475000056	8.750000000000	0.312500000000
0.001479999977	8.750000000000	0.312500000000
0.001485000015	8.750000000000	0.312500000000
0.001490000053	8.750000000000	0.312500000000
0.001494999975	8.750000000000	0.312500000000
0.001500000013	8.906250000000	0.312500000000
0.001505000051	8.750000000000	0.312500000000
0.001509999973	8.750000000000	0.312500000000
0.001515000011	8.750000000000	0.312500000000
0.001520000049	8.750000000000	0.312500000000
0.001524999971	8.750000000000	0.312500000000
0.001530000009	8.750000000000	0.312500000000
0.001535000047	8.750000000000	0.312500000000
0.001539999968	8.750000000000	0.312500000000
0.001545000006	8.750000000000	0.312500000000
0.001550000045	8.750000000000	0.312500000000
0.001554999966	8.750000000000	0.156250000000
0.001560000004	8.750000000000	0.156250000000
0.001565000042	8.750000000000	0.312500000000
0.001569999964	8.750000000000	0.312500000000
0.001575000002	8.750000000000	0.312500000000
0.001580000040	8.750000000000	0.312500000000
0.001584999962	8.906250000000	0.312500000000
0.001590000000	8.750000000000	0.312500000000
0.001595000038	8.750000000000	0.312500000000
0.001599999960	8.750000000000	0.312500000000
0.001604999998	8.750000000000	0.312500000000
0.001610000036	8.750000000000	0.312500000000
0.001614999957	8.750000000000	0.156250000000
0.001619999995	8.750000000000	0.312500000000
0.001625000034	8.750000000000	0.312500000000
0.001629999955	8.750000000000	0.156250000000
0.001634999993	8.906250000000	0.468750000000
0.001640000031	8.750000000000	0.312500000000
0.001644999953	8.750000000000	0.312500000000
0.001649999991	8.750000000000	0.312500000000
0.001655000029	8.750000000000	0.312500000000
0.001659999951	8.750000000000	0.312500000000
0.001664999989	8.750000000000	0.156250000000
0.001670000027	8.750000000000	0.312500000000
0.001674999949	8.750000000000	0.312500000000
0.001679999987	8.750000000000	0.312500000000
0.001685000025	8.750000000000	0.312500000000
0.001689999946	8.750000000000	0.312500000000
0.001694999984	8.750000000000	0.312500000000
0.001700000023	8.906250000000	0.312500000000
0.001704999944	8.750000000000	0.312500000000
0.001709999982	8.906250000000	0.312500000000
0.001715000020	8.750000000000	0.312500000000
0.001719999942	8.750000000000	0.312500000000
0.001724999980	8.750000000000	0.312500000000
0.001730000018	8.750000000000	0.312500000000
0.001735000056	8.750000000000	0.312500000000
0.001739999978	8.750000000000	0.312500000000
0.001745000016	8.750000000000	0.312500000000
0.001750000054	8.906250000000	0.312500000000
0.001754999976	8.750000000000	0.312500000000
0.001760000014	8.750000000000	0.312500000000
0.001765000052	8.750000000000	0.156250000000
0.001769999973	8.750000000000	0.312500000000
0.001775000012	8.750000000000	0.312500000000
0.001780000050	8.750000000000	0.312500000000
0.001784999971	8.750000000000	0.312500000000
0.001790000009	8.750000000000	0.312500000000
0.001795000047	8.750000000000	0.312500000000
0.001799999969	8.750000000000	0.312500000000
0.001805000007	8.750000000000	0.312500000000
0.001810000045	8.750000000000	0.312500000000
0.001814999967	8.750000000000	0.312500000000
0.001820000005	8.750000000000	0.312500000000
0.001825000043	8.750000000000	0.312500000000
0.001829999965	8.750000000000	0.312500000000
0.001835000003	8.750000000000	0.468750000000
0.001840000041	8.750000000000	0.312500000000
0.001844999962	8.750000000000	0.312500000000
0.001850000001	8.750000000000	0.312500000000
0.001855000039	8.750000000000	0.312500000000
0.001859999960	8.750000000000	0.312500000000
0.001864999998	8.750000000000	0.312500000000
0.001870000036	8.750000000000	0.312500000000
0.001874999958	8.750000000000	0.312500000000
0.001879999996	8.750000000000	0.312500000000
0.001885000034	8.750000000000	0.312500000000
0.001889999956	8.750000000000	0.156250000000
0.001894999994	8.906250000000	0.468750000000
0.001900000032	8.750000000000	0.312500000000
0.001904999954	8.750000000000	0.312500000000
0.001909999992	8.750000000000	0.312500000000
0.001915000030	8.750000000000	0.312500000000
0.001919999951	8.750000000000	0.312500000000
0.001924999990	8.750000000000	0.156250000000
0.001930000028	8.750000000000	0.312500000000
0.001934999949	8.750000000000	0.312500000000
0.001939999987	8.750000000000	0.156250000000
0.001945000025	8.750000000000	0.312500000000
0.001949999947	8.750000000000	0.312500000000
0.001954999985	8.750000000000	0.312500000000
0.001960000023	8.750000000000	0.312500000000
0.001965000061	8.750000000000	0.312500000000
0.001970000099	8.906250000000	0.312500000000
0.001974999905	8.750000000000	0.312500000000
0.001979999943	8.906250000000	0.312500000000
0.001984999981	8.750000000000	0.312500000000
0.001990000019	8.593750000000	0.312500000000
0.001995000057	8.750000000000	0.312500000000
0.002000000095	8.750000000000	0.156250000000
0.002004999900	8.750000000000	0.312500000000
0.002009999938	8.750000000000	0.312500000000
0.002014999976	8.750000000000	0.312500000000
0.002020000014	8.750000000000	0.312500000000
0.002025000053	8.750000000000	0.312500000000
0.002030000091	8.750000000000	0.312500000000
0.002034999896	8.750000000000	0.312500000000
0.002039999934	8.750000000000	0.312500000000
0.002044999972	8.750000000000	0.312500000000
0.002050000010	8.750000000000	0.312500000000
0.002055000048	8.750000000000	0.312500000000
0.002060000086	8.750000000000	0.312500000000
0.002064999891	8.750000000000	0.312500000000
0.002069999930	8.750000000000	0.312500000000
0.002074999968	8.750000000000	0.312500000000
0.002080000006	8.906250000000	0.312500000000
0.002085000044	8.750000000000	0.312500000000
0.002090000082	8.750000000000	0.312500000000
0.002094999887	8.750000000000	0.312500000000
0.002099999925	8.750000000000	0.312500000000
0.002104999963	8.750000000000	0.312500000000
0.002110000001	8.750000000000	0.312500000000
0.002115000039	8.750000000000	0.312500000000
0.002120000077	8.750000000000	0.312500000000
0.002125000115	8.750000000000	0.312500000000
0.002129999921	8.750000000000	0.312500000000
0.002134999959	8.750000000000	0.312500000000
0.002139999997	8.750000000000	0.312500000000
0.002145000035	8.750000000000	0.312500000000
0.002150000073	8.750000000000	0.312500000000
0.002155000111	8.906250000000	0.312500000000
0.002159999916	8.750000000000	0.312500000000
0.002164999954	8.750000000000	0.312500000000
0.002169999992	8.750000000000	0.312500000000
0.002175000031	8.750000000000	0.312500000000
0.002180000069	8.750000000000	0.468750000000
0.002185000107	8.750000000000	0.312500000000
0.002189999912	8.750000000000	0.312500000000
0.002194999950	8.750000000000	0.312500000000
0.002199999988	8.906250000000	0.312500000000
0.002205000026	8.750000000000	0.312500000000
0.002210000064	8.750000000000	0.312500000000
0.002215000102	8.750000000000	0.312500000000
0.002219999908	8.750000000000	0.312500000000
0.002224999946	8.750000000000	0.312500000000
0.002229999984	8.906250000000	0.312500000000
0.002235000022	8.750000000000	0.312500000000
0.002240000060	8.750000000000	0.312500000000
0.002245000098	8.906250000000	0.312500000000
0.002249999903	8.906250000000	0.156250000000
0.002254999941	8.750000000000	0.312500000000
0.002259999979	8.906250000000	0.312500000000
0.002265000017	8.750000000000	0.312500000000
0.002270000055	8.750000000000	0.312500000000
0.002275000094	8.750000000000	0.312500000000
0.002279999899	8.750000000000	0.312500000000
0.002284999937	8.750000000000	0.312500000000
0.002289999975	8.750000000000	0.312500000000
0.002295000013	8.750000000000	0.312500000000
0.002300000051	8.750000000000	0.312500000000
0.002305000089	8.750000000000	0.312500000000
0.002309999894	8.750000000000	0.312500000000
0.002314999932	8.750000000000	0.312500000000
0.002319999970	8.750000000000	0.312500000000
0.002325000009	8.750000000000	0.312500000000
0.002330000047	8.750000000000	0.312500000000
0.002335000085	8.750000000000	0.312500000000
0.002339999890	8.906250000000	0.312500000000
0.002344999928	8.750000000000	0.312500000000
0.002349999966	8.750000000000	0.156250000000
0.002355000004	8.750000000000	0.312500000000
0.002360000042	8.750000000000	0.312500000000
0.002365000080	3.281250000000	0.312500000000
0.002369999886	3.281250000000	0.312500000000
0.002374999924	3.281250000000	0.625000000000
0.002379999962	3.281250000000	1.093750000000
0.002385000000	3.281250000000	1.406250000000
0.002390000038	3.281250000000	1.718750000000
0.002395000076	3.281250000000	2.187500000000
0.002400000114	3.281250000000	2.656250000000
0.002404999919	3.281250000000	2.968750000000
0.002409999957	3.281250000000	3.281250000000
0.002414999995	3.281250000000	3.593750000000
0.002420000033	3.281250000000	3.906250000000
0.002425000072	3.281250000000	4.062500000000
0.002430000110	3.281250000000	4.531250000000
0.002434999915	3.281250000000	4.687500000000
0.002439999953	3.125000000000	5.000000000000
0.002444999991	3.281250000000	5.312500000000
0.002450000029	3.281250000000	5.468750000000
0.002455000067	3.281250000000	5.625000000000
0.002460000105	3.281250000000	5.781250000000
0.002464999910	3.281250000000	6.093750000000
0.002469999949	3.281250000000	6.406250000000
0.002474999987	3.281250000000	6.562500000000
0.002480000025	3.281250000000	6.562500000000
0.002485000063	3.281250000000	4.843750000000
0.002490000101	3.281250000000	4.687500000000
0.002494999906	3.281250000000	4.843750000000
0.002499999944	8.750000000000	5.000000000000
0.002504999982	8.750000000000	5.312500000000
0.002510000020	8.750000000000	5.625000000000
0.002515000058	8.750000000000	5.781250000000
0.002520000096	8.750000000000	6.093750000000
0.002524999902	8.750000000000	6.250000000000
0.002529999940	8.750000000000	6.406250000000
0.002534999978	8.906250000000	6.562500000000
0.002540000016	8.750000000000	6.093750000000
0.002545000054	8.750000000000	2.187500000000
0.002550000092	8.750000000000	0.312500000000
0.002554999897	8.750000000000	0.312500000000
0.002559999935	8.750000000000	0.312500000000
0.002564999973	8.750000000000	0.312500000000
0.002570000011	8.750000000000	0.312500000000
0.002575000050	8.906250000000	0.468750000000
0.002580000088	8.750000000000	0.156250000000
0.002584999893	8.750000000000	0.312500000000
0.002589999931	8.750000000000	0.312500000000
0.002594999969	8.750000000000	0.312500000000
0.002600000007	8.750000000000	0.312500000000
0.002605000045	8.750000000000	0.312500000000
0.002610000083	8.750000000000	0.312500000000
0.002614999888	8.750000000000	0.312500000000
0.002619999927	8.750000000000	0.312500000000
0.002624999965	8.750000000000	0.312500000000
0.002630000003	8.750000000000	0.312500000000
0.002635000041	8.750000000000	0.312500000000
0.002640000079	8.750000000000	0.312500000000
0.002644999884	8.750000000000	0.312500000000
0.002649999922	8.750000000000	0.312500000000
0.002654999960	8.750000000000	0.312500000000
0.002659999998	8.750000000000	0.312500000000
0.002665000036	8.750000000000	0.312500000000
0.002670000074	8.750000000000	0.312500000000
0.002675000113	8.906250000000	0.312500000000
0.002679999918	8.750000000000	0.312500000000
0.002684999956	8.750000000000	0.312500000000
0.002689999994	8.750000000000	0.468750000000
0.002695000032	8.750000000000	0.312500000000
0.002700000070	8.750000000000	0.312500000000
0.002705000108	8.750000000000	0.312500000000
0.002709999913	8.750000000000	0.312500000000
0.002714999951	8.750000000000	0.312500000000
0.002719999989	8.750000000000	0.312500000000
0.002725000028	8.750000000000	0.312500000000
0.002730000066	8.750000000000	0.312500000000
0.002735000104	8.750000000000	0.312500000000
0.002739999909	8.750000000000	0.312500000000
0.002744999947	8.750000000000	0.312500000000
0.002749999985	8.750000000000	0.312500000000
0.002755000023	8.750000000000	0.312500000000
0.002760000061	8.750000000000	0.312500000000
0.002765000099	8.906250000000	0.312500000000
0.002769999905	3.281250000000	0.312500000000
0.002774999943	3.281250000000	0.312500000000
0.002779999981	3.281250000000	0.312500000000
0.002785000019	3.281250000000	0.937500000000
0.002790000057	3.281250000000	1.250000000000
0.002795000095	3.281250000000	1.718750000000
0.002799999900	3.281250000000	2.031250000000
0.002804999938	3.281250000000	2.500000000000
0.002809999976	3.281250000000	2.812500000000
0.002815000014	3.281250000000	3.125000000000
0.002820000052	3.437500000000	3.437500000000
0.002825000091	3.281250000000	3.906250000000
0.002829999896	3.281250000000	4.062500000000
0.002834999934	3.281250000000	4.375000000000
0.002839999972	3.281250000000	4.531250000000
0.002845000010	3.281250000000	4.843750000000
0.002850000048	3.281250000000	5.156250000000
0.002855000086	3.281250000000	5.312500000000
0.002859999891	3.281250000000	5.625000000000
0.002864999929	3.281250000000	5.781250000000
0.002869999968	3.281250000000	5.937500000000
0.002875000006	3.281250000000	6.406250000000
0.002880000044	3.281250000000	6.406250000000
0.002885000082	3.281250000000	6.562500000000
0.002889999887	3.281250000000	6.562500000000
0.002894999925	3.281250000000	4.531250000000
0.002899999963	3.281250000000	5.000000000000
0.002905000001	8.593750000000	5.156250000000
0.002910000039	8.750000000000	5.312500000000
0.002915000077	8.750000000000	5.625000000000
0.002920000115	8.750000000000	5.781250000000
0.002924999921	8.750000000000	5.937500000000
0.002929999959	8.750000000000	6.093750000000
0.002934999997	8.750000000000	6.406250000000
0.002940000035	8.750000000000	6.406250000000
0.002945000073	8.750000000000	6.562500000000
0.002950000111	8.750000000000	3.437500000000
0.002954999916	8.750000000000	0.468750000000
0.002959999954	8.750000000000	0.312500000000
0.002964999992	8.750000000000	0.312500000000
0.002970000030	8.750000000000	0.312500000000
0.002975000069	8.750000000000	0.312500000000
0.002980000107	8.750000000000	0.312500000000
0.002984999912	8.750000000000	0.468750000000
0.002989999950	8.750000000000	0.312500000000
0.002994999988	8.750000000000	0.312500000000
0.003000000026	8.750000000000	0.312500000000
0.003005000064	8.750000000000	0.312500000000
0.003010000102	8.750000000000	0.312500000000
0.003014999907	8.750000000000	0.312500000000
0.003019999946	8.750000000000	0.312500000000
0.003024999984	8.750000000000	0.312500000000
0.003030000022	8.750000000000	0.312500000000
0.003035000060	8.750000000000	0.312500000000
0.003040000098	8.750000000000	0.312500000000
0.003044999903	8.750000000000	0.312500000000
0.003049999941	8.750000000000	0.156250000000
0.003054999979	8.750000000000	0.312500000000
0.003060000017	8.750000000000	0.312500000000
0.003065000055	8.750000000000	0.312500000000
0.003070000093	8.750000000000	0.312500000000
0.003074999899	8.750000000000	0.468750000000
0.003079999937	8.750000000000	0.312500000000
0.003084999975	8.750000000000	0.312500000000
0.003090000013	8.750000000000	0.312500000000
0.003095000051	8.750000000000	0.312500000000
0.003100000089	8.750000000000	0.312500000000
0.003104999894	8.750000000000	0.312500000000
0.003109999932	8.750000000000	0.312500000000
0.003114999970	8.750000000000	0.156250000000
0.003120000008	8.750000000000	0.312500000000
0.003125000047	8.750000000000	0.312500000000
0.003130000085	8.750000000000	0.312500000000
0.003134999890	8.750000000000	0.312500000000
0.003139999928	8.750000000000	0.312500000000
0.003144999966	8.906250000000	0.312500000000
0.003150000004	8.750000000000	0.312500000000
0.003155000042	8.750000000000	0.312500000000
0.003160000080	8.750000000000	0.312500000000
0.003164999885	8.750000000000	0.312500000000
0.003169999924	8.750000000000	0.312500000000
0.003174999962	8.750000000000	0.312500000000
0.003180000000	8.750000000000	0.312500000000
0.003185000038	8.750000000000	0.312500000000
0.003190000076	8.906250000000	0.312500000000
0.003195000114	8.750000000000	0.312500000000
0.003199999919	8.750000000000	0.312500000000
0.003204999957	8.750000000000	0.312500000000
0.003209999995	8.750000000000	0.312500000000
0.003215000033	8.750000000000	0.312500000000
0.003220000071	8.750000000000	0.312500000000
0.003225000110	8.750000000000	0.156250000000
0.003229999915	8.750000000000	0.312500000000
0.003234999953	8.750000000000	0.312500000000
0.003239999991	8.750000000000	0.312500000000
0.003245000029	8.750000000000	0.312500000000
0.003250000067	8.750000000000	0.312500000000
0.003255000105	8.750000000000	0.312500000000
0.003259999910	8.750000000000	0.312500000000
0.003264999948	8.750000000000	0.312500000000
0.003269999987	8.750000000000	0.468750000000
0.003275000025	8.750000000000	0.312500000000
0.003280000063	8.750000000000	0.312500000000
0.003285000101	8.750000000000	0.312500000000
0.003289999906	8.750000000000	0.312500000000
0.003294999944	8.750000000000	0.156250000000
0.003299999982	8.750000000000	0.156250000000
0.003305000020	8.750000000000	0.312500000000
0.003310000058	8.750000000000	0.312500000000
0.003315000096	8.750000000000	0.312500000000
0.003319999902	8.750000000000	0.156250000000
0.003324999940	8.750000000000	0.312500000000
0.003329999978	8.750000000000	0.312500000000
0.003335000016	8.750000000000	0.312500000000
0.003340000054	8.750000000000	0.312500000000
0.003345000092	8.750000000000	0.312500000000
0.003349999897	8.750000000000	0.312500000000
0.003354999935	8.750000000000	0.156250000000
0.003359999973	8.750000000000	0.312500000000
0.003365000011	8.750000000000	0.312500000000
0.003370000049	8.750000000000	0.312500000000
0.003375000088	8.593750000000	0.312500000000
0.003379999893	8.906250000000	0.312500000000
0.003384999931	8.750000000000	0.312500000000
0.003389999969	8.750000000000	0.312500000000
0.003395000007	8.750000000000	0.312500000000
0.003400000045	8.750000000000	0.312500000000
0.003405000083	8.750000000000	0.312500000000
0.003409999888	8.906250000000	0.312500000000
0.003414999926	8.750000000000	0.312500000000
0.003419999965	8.750000000000	0.312500000000
0.003425000003	8.750000000000	0.156250000000
0.003430000041	8.750000000000	0.312500000000
0.003435000079	8.750000000000	0.312500000000
0.003439999884	8.750000000000	0.312500000000
0.003444999922	8.750000000000	0.312500000000
0.003449999960	8.750000000000	0.312500000000
0.003454999998	8.906250000000	0.312500000000
0.003460000036	8.750000000000	0.312500000000
0.003465000074	8.750000000000	0.312500000000
0.003470000112	8.750000000000	0.312500000000
0.003474999918	8.750000000000	0.312500000000
0.003479999956	8.750000000000	0.312500000000
0.003484999994	8.750000000000	0.156250000000
0.003490000032	8.750000000000	0.312500000000
0.003495000070	8.906250000000	0.312500000000
0.003500000108	8.750000000000	0.312500000000
0.003504999913	8.750000000000	0.312500000000
0.003509999951	8.750000000000	0.312500000000
0.003514999989	8.750000000000	0.312500000000
0.003520000027	8.750000000000	0.312500000000
0.003525000066	8.906250000000	0.312500000000
0.003530000104	8.750000000000	0.312500000000
0.003534999909	8.750000000000	0.312500000000
0.003539999947	8.750000000000	0.312500000000
0.003544999985	8.750000000000	0.312500000000
0.003550000023	8.750000000000	0.312500000000
0.003555000061	8.750000000000	0.312500000000
0.003560000099	8.750000000000	0.312500000000
0.003564999904	8.750000000000	0.312500000000
0.003569999943	8.750000000000	0.312500000000
0.003574999981	8.750000000000	0.312500000000
0.003580000019	8.750000000000	0.312500000000
0.003585000057	8.906250000000	0.312500000000
0.003590000095	8.750000000000	0.312500000000
0.003594999900	8.750000000000	0.312500000000
0.003599999938	8.750000000000	0.312500000000
0.003604999976	8.750000000000	0.312500000000
0.003610000014	8.750000000000	0.312500000000
0.003615000052	8.750000000000	0.312500000000
0.003620000090	8.906250000000	0.312500000000
0.003624999896	8.750000000000	0.312500000000
0.003629999934	8.750000000000	0.156250000000
0.003634999972	8.750000000000	0.312500000000
0.003640000010	8.750000000000	0.312500000000
0.003645000048	8.750000000000	0.312500000000
0.003650000086	8.750000000000	0.312500000000
0.003654999891	8.750000000000	0.312500000000
0.003659999929	8.750000000000	0.312500000000
0.003664999967	8.750000000000	0.312500000000
0.003670000006	8.750000000000	0.312500000000
0.003675000044	8.750000000000	0.312500000000
0.003680000082	8.906250000000	0.312500000000
0.003684999887	8.750000000000	0.312500000000
0.003689999925	8.750000000000	0.156250000000
0.003694999963	8.750000000000	0.312500000000
0.003700000001	8.750000000000	0.312500000000
0.003705000039	8.750000000000	0.312500000000
0.003710000077	8.750000000000	0.312500000000
0.003715000115	8.750000000000	0.312500000000
0.003719999921	8.750000000000	0.312500000000
0.003724999959	8.750000000000	0.312500000000
0.003729999997	8.750000000000	0.312500000000
0.003735000035	8.750000000000	0.312500000000
0.003740000073	8.593750000000	0.312500000000
0.003745000111	8.750000000000	0.312500000000
0.003749999916	8.906250000000	0.312500000000
0.003754999954	8.906250000000	0.312500000000
0.003759999992	8.750000000000	0.468750000000
0.003765000030	8.750000000000	0.312500000000
0.003770000068	8.750000000000	0.312500000000
0.003775000107	8.750000000000	0.312500000000
0.003779999912	8.750000000000	0.312500000000
0.003784999950	8.750000000000	0.312500000000
0.003789999988	8.750000000000	0.312500000000
0.003795000026	8.750000000000	0.312500000000
0.003800000064	8.750000000000	0.312500000000
0.003805000102	8.750000000000	0.312500000000
0.003809999907	8.750000000000	0.312500000000
0.003814999945	8.750000000000	0.312500000000
0.003819999984	8.750000000000	0.312500000000
0.003825000022	8.750000000000	0.312500000000
0.003830000060	8.750000000000	0.312500000000
0.003835000098	8.750000000000	0.312500000000
0.003839999903	8.750000000000	0.312500000000
0.003844999941	8.750000000000	0.468750000000
0.003849999979	8.750000000000	0.312500000000
0.003855000017	8.750000000000	0.312500000000
0.003860000055	8.750000000000	0.312500000000
0.003865000093	8.750000000000	0.312500000000
0.003869999899	8.750000000000	0.312500000000
0.003874999937	8.750000000000	0.312500000000
0.003879999975	8.750000000000	0.312500000000
0.003885000013	8.750000000000	0.312500000000
0.003890000051	8.750000000000	0.312500000000
0.003895000089	8.750000000000	0.312500000000
0.003899999894	8.750000000000	0.312500000000
0.003904999932	8.750000000000	0.312500000000
0.003909999970	8.750000000000	0.312500000000
0.003914999776	8.906250000000	0.312500000000
0.003920000046	8.750000000000	0.312500000000
0.003924999852	8.750000000000	0.312500000000
0.003930000123	8.750000000000	0.312500000000
0.003934999928	8.750000000000	0.312500000000
0.003940000199	8.750000000000	0.312500000000
0.003945000004	8.750000000000	0.312500000000
0.003949999809	8.750000000000	0.312500000000
0.003955000080	8.750000000000	0.312500000000
0.003959999885	8.750000000000	0.312500000000
0.003965000156	8.750000000000	0.312500000000
0.003969999962	8.750000000000	0.312500000000
0.003975000232	8.750000000000	0.312500000000
0.003980000038	8.750000000000	0.312500000000
0.003984999843	8.750000000000	0.312500000000
0.003990000114	8.750000000000	0.312500000000
0.003994999919	8.750000000000	0.312500000000
0.004000000190	8.750000000000	0.312500000000
0.004004999995	8.750000000000	0.312500000000
0.004009999800	8.750000000000	0.312500000000
0.004015000071	8.750000000000	0.312500000000
0.004019999877	8.750000000000	0.312500000000
0.004025000148	8.750000000000	0.312500000000
0.004029999953	8.750000000000	0.312500000000
0.004035000224	8.750000000000	0.312500000000
0.004040000029	8.750000000000	0.312500000000
0.004044999834	8.750000000000	0.312500000000
0.004050000105	8.750000000000	0.312500000000
0.004054999910	8.750000000000	0.312500000000
0.004060000181	8.750000000000	0.156250000000
0.004064999986	8.750000000000	0.312500000000
0.004069999792	8.750000000000	0.156250000000
0.004075000063	8.750000000000	0.312500000000
0.004079999868	8.750000000000	0.312500000000
0.004085000139	8.750000000000	0.312500000000
0.004089999944	8.750000000000	0.312500000000
0.004095000215	8.750000000000	0.312500000000
0.004100000020	8.750000000000	0.468750000000
0.004104999825	8.750000000000	0.312500000000
0.004110000096	8.750000000000	0.312500000000
0.004114999902	8.750000000000	0.312500000000
0.004120000172	8.750000000000	0.312500000000
0.004124999978	8.750000000000	0.156250000000
0.004129999783	8.750000000000	0.312500000000
0.004135000054	8.750000000000	0.312500000000
0.004139999859	8.750000000000	0.312500000000
0.004145000130	8.750000000000	0.312500000000
0.004149999935	8.750000000000	0.312500000000
0.004155000206	8.750000000000	0.312500000000
0.004160000011	8.750000000000	0.312500000000
0.004164999817	8.750000000000	0.312500000000
0.004170000087	8.750000000000	0.312500000000
0.004174999893	8.750000000000	0.468750000000
0.004180000164	8.750000000000	0.312500000000
0.004184999969	8.750000000000	0.312500000000
0.004189999774	8.750000000000	0.312500000000
0.004195000045	8.750000000000	0.312500000000
0.004199999850	8.750000000000	0.312500000000
0.004205000121	8.750000000000	0.312500000000
0.004209999926	8.750000000000	0.312500000000
0.004215000197	8.750000000000	0.312500000000
0.004220000003	8.750000000000	0.312500000000
0.004224999808	8.750000000000	0.312500000000
0.004230000079	8.750000000000	0.312500000000
0.004234999884	8.750000000000	0.312500000000
0.004240000155	8.906250000000	0.312500000000
0.004244999960	8.906250000000	0.312500000000
0.004250000231	8.750000000000	0.312500000000
0.004255000036	8.750000000000	0.312500000000
0.004259999841	8.750000000000	0.312500000000
0.004265000112	8.750000000000	0.312500000000
0.004269999918	8.750000000000	0.312500000000
0.004275000188	8.750000000000	0.312500000000
0.004279999994	8.593750000000	0.312500000000
0.004284999799	8.750000000000	0.312500000000
0.004290000070	8.750000000000	0.468750000000
0.004294999875	8.750000000000	0.312500000000
0.004300000146	8.750000000000	0.312500000000
0.004304999951	8.750000000000	0.312500000000
0.004310000222	8.750000000000	0.312500000000
0.004315000027	8.750000000000	0.312500000000
0.004319999833	8.906250000000	0.468750000000
0.004325000104	8.750000000000	0.312500000000
0.004329999909	8.750000000000	0.312500000000
0.004335000180	8.906250000000	0.312500000000
0.004339999985	8.750000000000	0.312500000000
0.004344999790	8.750000000000	0.312500000000
0.004350000061	8.750000000000	0.312500000000
0.004354999866	8.750000000000	0.156250000000
0.004360000137	8.750000000000	0.312500000000
0.004364999942	8.750000000000	0.312500000000
0.004370000213	8.750000000000	0.312500000000
0.004375000019	8.750000000000	0.312500000000
0.004379999824	8.750000000000	0.312500000000
0.004385000095	8.750000000000	0.312500000000
0.004389999900	8.750000000000	0.312500000000
0.004395000171	8.750000000000	0.312500000000
0.004399999976	8.750000000000	0.312500000000
0.004404999781	8.750000000000	0.312500000000
0.004410000052	8.750000000000	0.312500000000
0.004414999858	8.906250000000	0.312500000000
0.004420000128	8.750000000000	0.312500000000
0.004424999934	8.750000000000	0.312500000000
0.004430000205	8.750000000000	0.312500000000
0.004435000010	8.750000000000	0.312500000000
0.004439999815	8.750000000000	0.312500000000
0.004445000086	8.750000000000	0.312500000000
0.004449999891	8.750000000000	0.312500000000
0.004455000162	8.750000000000	0.312500000000
0.004459999967	8.750000000000	0.312500000000
0.004464999773	8.750000000000	0.312500000000
0.004470000044	8.750000000000	0.312500000000
0.004474999849	8.750000000000	0.312500000000
0.004480000120	8.750000000000	0.312500000000
0.004484999925	8.750000000000	0.312500000000
0.004490000196	8.750000000000	0.312500000000
0.004495000001	8.750000000000	0.156250000000
0.004499999806	8.750000000000	0.312500000000
0.004505000077	8.750000000000	0.312500000000
0.004509999882	8.593750000000	0.312500000000
0.004515000153	8.750000000000	0.312500000000
0.004519999959	8.750000000000	0.312500000000
0.004525000229	8.750000000000	0.312500000000
0.004530000035	8.750000000000	0.312500000000
0.004534999840	8.750000000000	0.312500000000
0.004540000111	8.750000000000	0.312500000000
0.004544999916	8.750000000000	0.312500000000
0.004550000187	8.750000000000	0.312500000000
0.004554999992	8.750000000000	0.312500000000
0.004559999797	8.750000000000	0.312500000000
0.004565000068	8.750000000000	0.156250000000
0.004569999874	8.750000000000	0.312500000000
0.004575000145	8.750000000000	0.312500000000
0.004579999950	8.750000000000	0.312500000000
0.004585000221	8.750000000000	0.312500000000
0.004590000026	8.750000000000	0.312500000000
0.004594999831	8.750000000000	0.312500000000
0.004600000102	8.906250000000	0.312500000000
0.004604999907	8.750000000000	0.312500000000
0.004610000178	8.906250000000	0.312500000000
0.004614999983	8.750000000000	0.312500000000
0.004619999789	8.750000000000	0.312500000000
0.004625000060	8.750000000000	0.312500000000
0.004629999865	8.906250000000	0.312500000000
0.004635000136	8.750000000000	0.312500000000
0.004639999941	8.750000000000	0.312500000000
0.004645000212	8.750000000000	0.312500000000
0.004650000017	8.750000000000	0.312500000000
0.004654999822	8.750000000000	0.312500000000
0.004660000093	8.750000000000	0.468750000000
0.004664999899	8.750000000000	0.312500000000
0.004670000169	8.750000000000	0.312500000000
0.004674999975	8.750000000000	0.312500000000
0.004679999780	8.906250000000	0.312500000000
0.004685000051	8.750000000000	0.312500000000
0.004689999856	8.750000000000	0.312500000000
0.004695000127	8.750000000000	0.312500000000
0.004699999932	8.906250000000	0.312500000000
0.004705000203	8.593750000000	0.312500000000
0.004710000008	8.750000000000	0.312500000000
0.004714999814	8.750000000000	0.312500000000
0.004720000084	8.750000000000	0.312500000000
0.004724999890	8.750000000000	0.312500000000
0.004730000161	8.750000000000	0.312500000000
0.004734999966	8.750000000000	0.312500000000
0.004739999771	8.750000000000	0.312500000000
0.004745000042	8.906250000000	0.312500000000
0.004749999847	8.750000000000	0.312500000000
0.004755000118	8.750000000000	0.312500000000
0.004759999923	8.906250000000	0.312500000000
0.004765000194	8.750000000000	0.312500000000
0.004770000000	8.750000000000	0.312500000000
0.004774999805	8.750000000000	0.312500000000
0.004780000076	8.750000000000	0.312500000000
0.004784999881	8.750000000000	0.312500000000
0.004790000152	8.750000000000	0.312500000000
0.004794999957	8.750000000000	0.312500000000
0.004800000228	8.750000000000	0.312500000000
0.004805000033	8.750000000000	0.312500000000
0.004809999838	8.750000000000	0.312500000000
0.004815000109	8.750000000000	0.156250000000
0.004819999915	8.750000000000	0.312500000000
0.004825000186	8.750000000000	0.312500000000
0.004829999991	8.750000000000	0.312500000000
0.004834999796	8.906250000000	0.312500000000
0.004840000067	8.750000000000	0.312500000000
0.004844999872	8.750000000000	0.312500000000
0.004850000143	8.750000000000	0.312500000000
0.004854999948	8.750000000000	0.312500000000
0.004860000219	8.750000000000	0.312500000000
0.004865000024	8.750000000000	0.312500000000
0.004869999830	8.750000000000	0.312500000000
0.004875000101	8.750000000000	0.312500000000
0.004879999906	8.750000000000	0.156250000000
0.004885000177	8.750000000000	0.312500000000
0.004889999982	8.750000000000	0.312500000000
0.004894999787	8.750000000000	0.312500000000
0.004900000058	8.750000000000	0.312500000000
0.004904999863	8.750000000000	0.312500000000
0.004910000134	8.750000000000	0.312500000000
0.004914999940	8.750000000000	0.312500000000
0.004920000210	8.750000000000	0.156250000000
0.004925000016	8.750000000000	0.312500000000
0.004929999821	8.750000000000	0.156250000000
0.004935000092	8.750000000000	0.312500000000
0.004939999897	8.750000000000	0.312500000000
0.004945000168	8.750000000000	0.312500000000
0.004949999973	8.750000000000	0.312500000000
0.004954999778	8.750000000000	0.312500000000
0.004960000049	8.906250000000	0.312500000000
0.004964999855	8.906250000000	0.312500000000
0.004970000125	8.906250000000	0.156250000000
0.004974999931	8.750000000000	0.312500000000
0.004980000202	8.750000000000	0.156250000000
0.004985000007	8.750000000000	0.312500000000
0.004989999812	8.750000000000	0.312500000000
0.004995000083	8.750000000000	0.312500000000
